2,2,2,2,2,2,2,2,2,2
2,-1,5,3,-1,-1,6,2,2,2
2,-1,-1,-1,-1,-1,-1,-1,3,2
2,4,-1,-1,-1,-1,4,-1,-1,2
2,4,-1,-1,-1,3,4,-1,-1,2
2,-1,-1,-1,-1,2,-1,-1,-1,2
2,2,-1,4,4,-1,-1,-1,3,2
2,-1,-1,-1,3,-1,-1,-1,-1,2
2,1,-1,-1,-1,-1,2,-1,7,2
2,2,2,2,2,2,2,2,2,2
